{
    "testName": "Functional.raspi_kinstall",
    "specs": {
        "default": {
            "gitrepo": "https://github.com/raspberrypi/linux.git",
            "gitref": "rpi-5.4.y"
        }
    }
}

