{
    "testPlanName": "testplan_usbstor",
    "default_spec": "usb",
    "tests": [
        {
            "testName": "Benchmark.fio"
        },
        {
            "testName": "Benchmark.bonnie"
        },
        {
            "testName": "Benchmark.IOzone"
        },
        {
            "testName": "Benchmark.ffsb"
        },
        {
            "testName": "Benchmark.tiobench"
        },
        {
            "testName": "Functional.aiostress"
        },
        {
            "testName": "Functional.synctest"
        },
        {
            "testName": "Benchmark.Interbench"
        },
        {
            "testName": "Benchmark.dbench4"
        }

    ]
}
